com\gear\tools\geardata\MainPanel$3.class
com\gear\tools\geardata\MainPanel$9.class
com\gear\tools\geardata\DynamicCompile\DCFileObject.class
com\gear\tools\geardata\DynamicCompile\DCClassLoader.class
com\gear\tools\geardata\FileFilters\FileFilterExcel.class
com\gear\tools\geardata\Pipeline$1.class
com\gear\tools\geardata\FileFilters\FileFilterJava.class
com\gear\tools\geardata\MainPanel.class
com\gear\tools\geardata\FileFilters\FileFilterProto.class
com\gear\tools\geardata\MainPanel$8.class
com\gear\tools\geardata\FileFilters\FileFilterNotExcel.class
com\gear\tools\geardata\MainPanel$4.class
com\gear\tools\geardata\MainPanel$6.class
com\gear\tools\geardata\Settings.class
com\gear\tools\geardata\MainPanel$7.class
com\gear\tools\geardata\Pipeline.class
com\gear\tools\geardata\FileFilters\FileFilterDesc.class
com\gear\tools\geardata\MainPanel$5.class
com\gear\tools\geardata\MainPanel$1.class
com\gear\tools\geardata\DynamicCompile\DCFileManager.class
com\gear\tools\geardata\MainPanel$2.class
com\gear\tools\geardata\DynamicCompile\DCHelper.class
